module gitlab.com/vk-golang/lectures

go 1.18

require (
	github.com/asaskevich/govalidator v0.0.0-20210307081110-f21760c49a8d
	github.com/bradfitz/gomemcache v0.0.0-20220106215444-fb4bf637b56d
	github.com/casbin/casbin v1.9.1
	github.com/dgrijalva/jwt-go v3.2.0+incompatible
	github.com/fasthttp/router v1.4.18
	github.com/garyburd/redigo v1.6.4
	github.com/go-sql-driver/mysql v1.6.0
	github.com/golang/mock v1.4.4
	github.com/golang/protobuf v1.5.2
	github.com/gomodule/redigo v1.8.9
	github.com/gorilla/mux v1.8.0
	github.com/gorilla/schema v1.2.0
	github.com/gorilla/websocket v1.5.0
	github.com/hashicorp/consul/api v1.15.3
	github.com/hashicorp/vault/api v1.8.2
	github.com/icrowley/fake v0.0.0-20220625154756-3c7517006344
	github.com/jinzhu/gorm v1.9.16
	github.com/joho/godotenv v1.4.0
	github.com/julienschmidt/httprouter v1.3.0
	github.com/mailru/easyjson v0.7.7
	github.com/microcosm-cc/bluemonday v1.0.21
	github.com/nfnt/resize v0.0.0-20180221191011-83c6a9932646
	github.com/opentracing-contrib/go-grpc v0.0.0-20210225150812-73cb765af46e
	github.com/opentracing/opentracing-go v1.2.0
	github.com/pkg/errors v0.9.1
	github.com/prometheus/client_golang v1.12.1
	github.com/sirupsen/logrus v1.9.0
	github.com/skinass/telegram-bot-api/v5 v5.0.3
	github.com/spf13/viper v1.14.0
	github.com/streadway/amqp v1.0.0
	github.com/stretchr/testify v1.8.1
	github.com/tarantool/go-tarantool v1.8.0
	github.com/uber/jaeger-client-go v2.30.0+incompatible
	github.com/uber/jaeger-lib v2.4.1+incompatible
	github.com/valyala/fasthttp v1.45.0
	github.com/ybbus/jsonrpc/v2 v2.1.6
	go.mongodb.org/mongo-driver v1.11.2
	go.uber.org/zap v1.23.0
	golang.org/x/crypto v0.7.0
	golang.org/x/net v0.8.0
	google.golang.org/grpc v1.50.1
	google.golang.org/protobuf v1.28.1
	gopkg.in/DATA-DOG/go-sqlmock.v1 v1.3.0
	gopkg.in/alexcesaro/statsd.v2 v2.0.0
	gopkg.in/vmihailenco/msgpack.v2 v2.9.2
)

require (
	github.com/HdrHistogram/hdrhistogram-go v1.1.2 // indirect
	github.com/Knetic/govaluate v3.0.1-0.20171022003610-9aa49832a739+incompatible // indirect
	github.com/andybalholm/brotli v1.0.5 // indirect
	github.com/armon/go-metrics v0.4.0 // indirect
	github.com/armon/go-radix v1.0.0 // indirect
	github.com/aymerick/douceur v0.2.0 // indirect
	github.com/beorn7/perks v1.0.1 // indirect
	github.com/cenkalti/backoff/v3 v3.0.0 // indirect
	github.com/cespare/xxhash/v2 v2.1.2 // indirect
	github.com/corpix/uarand v0.0.0-20170723150923-031be390f409 // indirect
	github.com/davecgh/go-spew v1.1.1 // indirect
	github.com/fatih/color v1.13.0 // indirect
	github.com/fsnotify/fsnotify v1.6.0 // indirect
	github.com/golang/snappy v0.0.4 // indirect
	github.com/gorilla/css v1.0.0 // indirect
	github.com/hashicorp/errwrap v1.1.0 // indirect
	github.com/hashicorp/go-cleanhttp v0.5.2 // indirect
	github.com/hashicorp/go-hclog v1.2.0 // indirect
	github.com/hashicorp/go-immutable-radix v1.3.1 // indirect
	github.com/hashicorp/go-multierror v1.1.1 // indirect
	github.com/hashicorp/go-plugin v1.4.5 // indirect
	github.com/hashicorp/go-retryablehttp v0.6.6 // indirect
	github.com/hashicorp/go-rootcerts v1.0.2 // indirect
	github.com/hashicorp/go-secure-stdlib/mlock v0.1.1 // indirect
	github.com/hashicorp/go-secure-stdlib/parseutil v0.1.6 // indirect
	github.com/hashicorp/go-secure-stdlib/strutil v0.1.2 // indirect
	github.com/hashicorp/go-sockaddr v1.0.2 // indirect
	github.com/hashicorp/go-uuid v1.0.2 // indirect
	github.com/hashicorp/go-version v1.2.0 // indirect
	github.com/hashicorp/golang-lru v0.5.4 // indirect
	github.com/hashicorp/hcl v1.0.0 // indirect
	github.com/hashicorp/serf v0.9.8 // indirect
	github.com/hashicorp/vault/sdk v0.6.0 // indirect
	github.com/hashicorp/yamux v0.0.0-20180604194846-3520598351bb // indirect
	github.com/jinzhu/inflection v1.0.0 // indirect
	github.com/josharian/intern v1.0.0 // indirect
	github.com/klauspost/compress v1.16.3 // indirect
	github.com/magiconair/properties v1.8.6 // indirect
	github.com/mattn/go-colorable v0.1.12 // indirect
	github.com/mattn/go-isatty v0.0.14 // indirect
	github.com/mattn/go-pointer v0.0.1 // indirect
	github.com/matttproud/golang_protobuf_extensions v1.0.1 // indirect
	github.com/mitchellh/copystructure v1.0.0 // indirect
	github.com/mitchellh/go-homedir v1.1.0 // indirect
	github.com/mitchellh/go-testing-interface v1.0.0 // indirect
	github.com/mitchellh/mapstructure v1.5.0 // indirect
	github.com/mitchellh/reflectwalk v1.0.0 // indirect
	github.com/montanaflynn/stats v0.0.0-20171201202039-1bf9dbcd8cbe // indirect
	github.com/oklog/run v1.0.0 // indirect
	github.com/pelletier/go-toml v1.9.5 // indirect
	github.com/pelletier/go-toml/v2 v2.0.5 // indirect
	github.com/pierrec/lz4 v2.5.2+incompatible // indirect
	github.com/pmezard/go-difflib v1.0.0 // indirect
	github.com/prometheus/client_model v0.2.0 // indirect
	github.com/prometheus/common v0.32.1 // indirect
	github.com/prometheus/procfs v0.7.3 // indirect
	github.com/ryanuber/go-glob v1.0.0 // indirect
	github.com/savsgio/gotils v0.0.0-20230208104028-c358bd845dee // indirect
	github.com/spacemonkeygo/spacelog v0.0.0-20180420211403-2296661a0572 // indirect
	github.com/spf13/afero v1.9.2 // indirect
	github.com/spf13/cast v1.5.0 // indirect
	github.com/spf13/jwalterweatherman v1.1.0 // indirect
	github.com/spf13/pflag v1.0.5 // indirect
	github.com/subosito/gotenv v1.4.1 // indirect
	github.com/tarantool/go-openssl v0.0.8-0.20220711094538-d93c1eff4f49 // indirect
	github.com/valyala/bytebufferpool v1.0.0 // indirect
	github.com/vmihailenco/msgpack/v5 v5.3.5 // indirect
	github.com/vmihailenco/tagparser/v2 v2.0.0 // indirect
	github.com/xdg-go/pbkdf2 v1.0.0 // indirect
	github.com/xdg-go/scram v1.1.1 // indirect
	github.com/xdg-go/stringprep v1.0.3 // indirect
	github.com/youmark/pkcs8 v0.0.0-20181117223130-1be2e3e5546d // indirect
	go.uber.org/atomic v1.9.0 // indirect
	go.uber.org/multierr v1.8.0 // indirect
	golang.org/x/sync v0.1.0 // indirect
	golang.org/x/sys v0.12.0 // indirect
	golang.org/x/text v0.8.0 // indirect
	golang.org/x/time v0.0.0-20220609170525-579cf78fd858 // indirect
	google.golang.org/appengine v1.6.7 // indirect
	google.golang.org/genproto v0.0.0-20221024183307-1bc688fe9f3e // indirect
	gopkg.in/ini.v1 v1.67.0 // indirect
	gopkg.in/square/go-jose.v2 v2.5.1 // indirect
	gopkg.in/yaml.v2 v2.4.0 // indirect
	gopkg.in/yaml.v3 v3.0.1 // indirect
)
